{
  "swagger": "2.0",
  "info": {
    "title": "media.admin.api.proto",
    "version": "version not set"
  },
  "consumes": [
    "application/json"
  ],
  "produces": [
    "application/json"
  ],
  "paths": {},
  "definitions": {
    "protoCreateMediaItemResponse": {
      "type": "object",
      "properties": {
        "mediaItem": {
          "$ref": "#/definitions/protoMedia"
        }
      }
    },
    "protoGetMediaItemByIDResponse": {
      "type": "object",
      "properties": {
        "mediaItem": {
          "$ref": "#/definitions/protoMedia"
        }
      }
    },
    "protoGetMediaItemsByIDsResponse": {
      "type": "object",
      "properties": {
        "mediaItems": {
          "type": "array",
          "items": {
            "$ref": "#/definitions/protoMedia"
          }
        }
      }
    },
    "protoGetUploadUrlResponse": {
      "type": "object",
      "properties": {
        "url": {
          "type": "string"
        },
        "objectName": {
          "type": "string"
        }
      }
    },
    "protoMedia": {
      "type": "object",
      "properties": {
        "id": {
          "type": "string",
          "format": "int64"
        },
        "createdAt": {
          "type": "string"
        },
        "updatedAt": {
          "type": "string"
        },
        "url": {
          "type": "string"
        },
        "filename": {
          "type": "string"
        },
        "contentType": {
          "type": "string"
        },
        "thumbnail": {
          "$ref": "#/definitions/protoMediaImage"
        },
        "imagePreview": {
          "$ref": "#/definitions/protoMediaImage"
        }
      }
    },
    "protoMediaImage": {
      "type": "object",
      "properties": {
        "id": {
          "type": "string",
          "format": "int64"
        },
        "url": {
          "type": "string"
        },
        "filename": {
          "type": "string"
        },
        "contentType": {
          "type": "string"
        }
      }
    },
    "protoUpdateMediaItemResponse": {
      "type": "object",
      "properties": {
        "mediaItem": {
          "$ref": "#/definitions/protoMedia"
        }
      }
    },
    "protobufAny": {
      "type": "object",
      "properties": {
        "type_url": {
          "type": "string"
        },
        "value": {
          "type": "string",
          "format": "byte"
        }
      }
    },
    "runtimeError": {
      "type": "object",
      "properties": {
        "error": {
          "type": "string"
        },
        "code": {
          "type": "integer",
          "format": "int32"
        },
        "message": {
          "type": "string"
        },
        "details": {
          "type": "array",
          "items": {
            "$ref": "#/definitions/protobufAny"
          }
        }
      }
    }
  }
}
