{
  "swagger": "2.0",
  "info": {
    "title": "product.supplier.api.proto",
    "version": "version not set"
  },
  "consumes": [
    "application/json"
  ],
  "produces": [
    "application/json"
  ],
  "paths": {
    "/supplier/api/p/product/id/{id}": {
      "get": {
        "operationId": "ProductService_GetProductById",
        "responses": {
          "200": {
            "description": "A successful response.",
            "schema": {
              "$ref": "#/definitions/protoGetProductByIdResponse"
            }
          },
          "default": {
            "description": "An unexpected error response",
            "schema": {
              "$ref": "#/definitions/runtimeError"
            }
          }
        },
        "parameters": [
          {
            "name": "id",
            "in": "path",
            "required": true,
            "type": "string"
          },
          {
            "name": "expand",
            "in": "query",
            "required": false,
            "type": "string"
          }
        ],
        "tags": [
          "ProductService"
        ]
      }
    },
    "/supplier/api/p/product/ids/{ids}": {
      "get": {
        "operationId": "ProductService_GetProductByIds",
        "responses": {
          "200": {
            "description": "A successful response.",
            "schema": {
              "$ref": "#/definitions/protoGetProductByIdsResponse"
            }
          },
          "default": {
            "description": "An unexpected error response",
            "schema": {
              "$ref": "#/definitions/runtimeError"
            }
          }
        },
        "parameters": [
          {
            "name": "ids",
            "in": "path",
            "required": true,
            "type": "array",
            "items": {
              "type": "string"
            },
            "collectionFormat": "csv",
            "minItems": 1
          },
          {
            "name": "expand",
            "in": "query",
            "required": false,
            "type": "string"
          }
        ],
        "tags": [
          "ProductService"
        ]
      }
    }
  },
  "definitions": {
    "BehaviourMeta_ArtworkingSideSides": {
      "type": "string",
      "enum": [
        "SINGLE",
        "DOUBLE"
      ],
      "default": "SINGLE"
    },
    "OptionProcessingProcessingSides": {
      "type": "string",
      "enum": [
        "UNDEFINED",
        "SINGLE",
        "DOUBLE"
      ],
      "default": "UNDEFINED"
    },
    "protoBehaviour": {
      "type": "object",
      "properties": {
        "behaviourType": {
          "$ref": "#/definitions/protoBehaviourType"
        },
        "artworkingSide": {
          "$ref": "#/definitions/protoBehaviourMeta_ArtworkingSide"
        }
      }
    },
    "protoBehaviourMeta_ArtworkingSide": {
      "type": "object",
      "properties": {
        "sides": {
          "$ref": "#/definitions/BehaviourMeta_ArtworkingSideSides"
        }
      }
    },
    "protoBehaviourType": {
      "type": "string",
      "enum": [
        "UNDEFINED_BEHAVIOUR",
        "ARTWORKING_SIDE"
      ],
      "default": "UNDEFINED_BEHAVIOUR"
    },
    "protoCollection": {
      "type": "object",
      "properties": {
        "id": {
          "type": "string"
        },
        "name": {
          "type": "string"
        }
      }
    },
    "protoGetProductByIdResponse": {
      "type": "object",
      "properties": {
        "product": {
          "$ref": "#/definitions/protoProduct"
        }
      }
    },
    "protoGetProductByIdsResponse": {
      "type": "object",
      "properties": {
        "products": {
          "type": "array",
          "items": {
            "$ref": "#/definitions/protoProduct"
          }
        }
      }
    },
    "protoNoneOption": {
      "type": "object",
      "properties": {
        "type": {
          "type": "string"
        },
        "name": {
          "type": "string"
        },
        "technicalName": {
          "type": "string"
        },
        "description": {
          "type": "string"
        },
        "thumbnail": {
          "type": "string"
        }
      }
    },
    "protoOption": {
      "type": "object",
      "properties": {
        "default": {
          "$ref": "#/definitions/protoOptionDefault"
        },
        "sizer": {
          "$ref": "#/definitions/protoOptionSize"
        },
        "range": {
          "$ref": "#/definitions/protoOptionRange"
        },
        "stock": {
          "$ref": "#/definitions/protoOptionStock"
        },
        "child": {
          "$ref": "#/definitions/protoOptionWithChild"
        },
        "processing": {
          "$ref": "#/definitions/protoOptionProcessing"
        }
      }
    },
    "protoOptionDefault": {
      "type": "object",
      "properties": {
        "id": {
          "type": "string"
        },
        "name": {
          "type": "string"
        },
        "description": {
          "type": "string"
        },
        "thumbnail": {
          "type": "string"
        },
        "tags": {
          "type": "array",
          "items": {
            "type": "string"
          }
        },
        "technicalName": {
          "type": "string"
        },
        "fileRequirements": {
          "type": "array",
          "items": {
            "$ref": "#/definitions/protoSelectedFileRequirement"
          }
        }
      },
      "title": "DEFINITIONS"
    },
    "protoOptionProcessing": {
      "type": "object",
      "properties": {
        "id": {
          "type": "string"
        },
        "sides": {
          "$ref": "#/definitions/OptionProcessingProcessingSides"
        },
        "description": {
          "type": "string"
        },
        "technicalName": {
          "type": "string"
        },
        "fileRequirements": {
          "type": "array",
          "items": {
            "$ref": "#/definitions/protoSelectedFileRequirement"
          }
        },
        "thumbnail": {
          "type": "string"
        },
        "name": {
          "type": "string"
        }
      }
    },
    "protoOptionRange": {
      "type": "object",
      "properties": {
        "id": {
          "type": "string"
        },
        "min": {
          "type": "integer",
          "format": "int32"
        },
        "max": {
          "type": "integer",
          "format": "int32"
        },
        "step": {
          "type": "integer",
          "format": "int32"
        },
        "name": {
          "type": "string"
        },
        "technicalName": {
          "type": "string"
        },
        "tags": {
          "type": "array",
          "items": {
            "type": "string"
          }
        },
        "fileRequirements": {
          "type": "array",
          "items": {
            "$ref": "#/definitions/protoSelectedFileRequirement"
          }
        }
      }
    },
    "protoOptionSize": {
      "type": "object",
      "properties": {
        "id": {
          "type": "string"
        },
        "name": {
          "type": "string"
        },
        "description": {
          "type": "string"
        },
        "thumbnail": {
          "type": "string"
        },
        "height": {
          "type": "integer",
          "format": "int32"
        },
        "width": {
          "type": "integer",
          "format": "int32"
        },
        "tags": {
          "type": "array",
          "items": {
            "type": "string"
          }
        },
        "technicalName": {
          "type": "string"
        },
        "isFileRequirement": {
          "type": "boolean",
          "format": "boolean"
        },
        "depth": {
          "type": "integer",
          "format": "int32"
        },
        "fileRequirements": {
          "type": "array",
          "items": {
            "$ref": "#/definitions/protoSelectedFileRequirement"
          }
        }
      }
    },
    "protoOptionStock": {
      "type": "object",
      "properties": {
        "id": {
          "type": "string"
        },
        "name": {
          "type": "string"
        },
        "weight": {
          "type": "integer",
          "format": "int32"
        },
        "weightUnit": {
          "type": "string"
        },
        "technicalName": {
          "type": "string"
        },
        "tags": {
          "type": "array",
          "items": {
            "type": "string"
          }
        },
        "fileRequirements": {
          "type": "array",
          "items": {
            "$ref": "#/definitions/protoSelectedFileRequirement"
          }
        }
      }
    },
    "protoOptionWithChild": {
      "type": "object",
      "properties": {
        "id": {
          "type": "string"
        },
        "name": {
          "type": "string"
        },
        "description": {
          "type": "string"
        },
        "thumbnail": {
          "type": "string"
        },
        "options": {
          "type": "array",
          "items": {
            "$ref": "#/definitions/protoOption"
          }
        },
        "childType": {
          "type": "string"
        },
        "technicalName": {
          "type": "string"
        },
        "tags": {
          "type": "array",
          "items": {
            "type": "string"
          }
        },
        "defaultStyle": {
          "type": "string"
        },
        "fileRequirements": {
          "type": "array",
          "items": {
            "$ref": "#/definitions/protoSelectedFileRequirement"
          }
        }
      }
    },
    "protoProduct": {
      "type": "object",
      "properties": {
        "id": {
          "type": "string"
        },
        "createdAt": {
          "type": "string"
        },
        "updatedAt": {
          "type": "string"
        },
        "name": {
          "type": "string"
        },
        "uid": {
          "type": "string"
        },
        "heroDescription": {
          "type": "string"
        },
        "cardDescription": {
          "type": "string"
        },
        "price": {
          "type": "integer",
          "format": "int32"
        },
        "status": {
          "type": "string"
        },
        "attributes": {
          "type": "array",
          "items": {
            "$ref": "#/definitions/protoProductAttribute"
          }
        },
        "features": {
          "type": "array",
          "items": {
            "type": "string"
          }
        },
        "collections": {
          "type": "array",
          "items": {
            "$ref": "#/definitions/protoCollection"
          }
        },
        "images": {
          "type": "array",
          "items": {
            "$ref": "#/definitions/protoProductImage"
          }
        },
        "vat": {
          "type": "string"
        },
        "featured": {
          "type": "boolean",
          "format": "boolean"
        },
        "fileRequirements": {
          "type": "array",
          "items": {
            "$ref": "#/definitions/protoSelectedFileRequirement"
          }
        }
      }
    },
    "protoProductAttribute": {
      "type": "object",
      "properties": {
        "id": {
          "type": "string"
        },
        "createdAt": {
          "type": "string"
        },
        "updatedAt": {
          "type": "string"
        },
        "attributeId": {
          "type": "string"
        },
        "order": {
          "type": "integer",
          "format": "int32"
        },
        "type": {
          "type": "string"
        },
        "name": {
          "type": "string"
        },
        "defaultStyle": {
          "type": "string"
        },
        "appendTitle": {
          "type": "string"
        },
        "helpText": {
          "type": "string"
        },
        "options": {
          "type": "array",
          "items": {
            "$ref": "#/definitions/protoOption"
          }
        },
        "Hidden": {
          "type": "boolean",
          "format": "boolean"
        },
        "technicalName": {
          "type": "string"
        },
        "image": {
          "$ref": "#/definitions/protoProductImage"
        },
        "additionalFieldOne": {
          "type": "string"
        },
        "additionalFieldTwo": {
          "type": "string"
        },
        "showNoneOption": {
          "type": "boolean",
          "format": "boolean"
        },
        "noneOption": {
          "$ref": "#/definitions/protoNoneOption"
        },
        "behaviours": {
          "type": "array",
          "items": {
            "$ref": "#/definitions/protoBehaviour"
          }
        }
      }
    },
    "protoProductImage": {
      "type": "object",
      "properties": {
        "id": {
          "type": "string"
        },
        "url": {
          "type": "string"
        },
        "mimeType": {
          "type": "string"
        }
      }
    },
    "protoSelectedFileRequirement": {
      "type": "object",
      "properties": {
        "requirementCode": {
          "type": "string"
        },
        "requirement": {
          "type": "string"
        },
        "option_code": {
          "type": "string"
        },
        "option": {
          "type": "string"
        }
      }
    },
    "protobufAny": {
      "type": "object",
      "properties": {
        "type_url": {
          "type": "string"
        },
        "value": {
          "type": "string",
          "format": "byte"
        }
      }
    },
    "runtimeError": {
      "type": "object",
      "properties": {
        "error": {
          "type": "string"
        },
        "code": {
          "type": "integer",
          "format": "int32"
        },
        "message": {
          "type": "string"
        },
        "details": {
          "type": "array",
          "items": {
            "$ref": "#/definitions/protobufAny"
          }
        }
      }
    }
  }
}
    }
    }
  }
}
